20120618,az3324911108620120610,257,l7,20120531,36,37,7036037001215210,l7,20120616,36,37,7036037001216810,no,n/a,61,112,171,BAER,Y,,dNBR
20120820,az3331911107920120813,Queen,l5,20100822,36,37,5036037001023410,l7,20120819,36,37,7036037001223210,no,n/a,90,119,255,BAER,Y,,dNBR
20120820,az3384311153020120812,Charley,l5,20100822,36,37,5036037001023410,l7,20120819,36,37,7036037001223210,no,n/a,90,139,192,BAER,N,,dNBR
20120831,az3384311153020120812,Charley,deimos1,20120802,,,DE01_SL6_22S_1T_20120802T174540_20120802T174659_DMI_0_4358,deimos1,20120825,,,DE01_SL6_22P_1T_20120825T180034_20120825T180211_DMI_0_4477,no,n/a,94,118,136,BAER,Y,,dNDVI
20120820,az3389711114620120808,Mistake_Peak,l5,20100822,36,37,5036037001023410,l7,20120819,36,37,7036037001223210,no,n/a,107,164,202,BAER,Y,,dNBR
20120519,AZ3393111147420120512,Sunflower,deimos1,20120501,,,UK02_SL6_22S_1T_20120501T153605_20120501T153655_DMC_0_1c71,deimos1,20120517,,,DE01_SL6_22P_1T_20120517T174645_20120517T174840_DMI_0_3fd3,no,n/a,86,104,121,BAER,N,,dNDVI
20120622,AZ3393111147420120512,Sunflower,deimos1,20110604,,,DE01_SL6_22P_1T_20110604T175333_20110604T175515_DMI_0_2dfa,deimos1,20120609,,,DE01_SL6_22P_1T_20120609T180341_20120609T180506_DMI_0_40d1,no,n/a,62,97,116,BAER,Y,,dNDVI
20120625,az3415011088320120614,POCO,l5,20110606,36,36,5036036001115710,eo1,20120623,,,EO1A0360362012175110KF,no,n/a,65,119,177,BAER,Y,,dNBR
20120523,AZ3421511233820120513,Gladiator,l5,20100525,37,36,5037036001014510,l7,20120522,37,36,7037036001214310,no,n/a,81,126,193,BAER,Y,,dNBR
20120519,AZ3423111078220120510,Bull_Flat_Fire,deimos1,20120501,,,UK02_SL6_22S_1T_20120501T153605_20120501T153655_DMC_0_1c71,deimos1,20120517,,,DE01_SL6_22P_1T_20120517T174645_20120517T174840_DMI_0_3fd3,no,n/a,54,71,94,BAER,Y,,dNDVI
20120714,az3471811113020120629,Canyon,ukdmc2,20120619,,,UK02_SL6_22S_1T_20120619T173755_20120619T173845_DMC_0_1f3d,deimos1,20120711,,,DE01_SL6_22P_1T_20120711T175942_20120711T180201_DMI_0_4241,no,n/a,108,121,139,BAER,N,,dNDVI
20120719,az3471811113020120629,Canyon,l5,20090718,36,36,5036036000919910,l7,20120718,36,36,7036036001220010,no,n/a,76,104,186,BAER,Y,,dNBR
20120628,AZ3595711196720120619,Grand_Fire,l5,20110613,37,35,5037035001116410,l7,20120623,37,35,7037035001217510,no,n/a,70,130,180,BAER,Y,,dNBR
20120802,az3658311241620120721,Tank (WEST_SIDE_COMPLEX),l5,20110807,38,35,5038035001121910,spot4,20120728,,,45522771207281720272I0,no,n/a,134,154,255,BAER,Y,,dNDVI
20120814,az3666511252620120808,EAST,spot4,20100910,,,45512761009101807322I0,spot4,20120812,,,45512761208121730522I0,no,n/a,36,54,76,BAER,Y,,dNDVI
20120909,ca3423811772220120902,Williams,l5,20110913,41,33,5041033001125610,eo1,20120908,,,EO1A0410362012252110PF,no,n/a,76,140,188,BAER,Y,,dNBR
20120611,CA3614911850520120601,GEORGE,l5,20110702,42,35,5042035001118310,l7,20120610,42,35,7042035001216210,no,n/a,70,125,177,BAER,Y,,dNBR
20120816,ca3791111886320120808,Indian,l5,20110821,42,34,5042034001123310,l7,20120813,42,34,7042034001222610,no,n/a,75,109,999,BAER,Y,,dNBR
20120821,ca3837612016620120811,RAMSEY,l7,20120804,43,33,7043033001221710,l7,20120820,43,33,7043033001223310,no,n/a,75,109,187,BAER,Y,,dNBR
20120928,ca3905112090020120711,ROBBERS,l5,20110725,43,33,5043033001120610,spot4,20120726,,,45332711207251818081I5,no,n/a,80,109,175,BAER,Y,,dNDVI
20120718,ca3931912270720120707,MILL_,spot4,20120624,,,45292711206241816252I0,spot5,20120716,,,55292711207161907402J0,no,n/a,115,150,197,BAER,N,,dNDVI
20120725,CA3931912270720120707,MILL_,deimos1,20110720,,,DE01_SL6_22P_1T_20110720T183907_20110720T184055_DMI_0_3097,ukdmc2,20120720,,,UK02_SL6_22P_1T_20120720T184217_20120720T184307_DMC_0_2195,no,n/a,85,126,171,BAER,Y,,dNDVI
20120904,ca3986612313320120818,North_Pass,l5,20110909,45,32,5045032001125210,l7,20120903,45,32,7045032001224710,no,n/a,80,126,191,BAER,N,,dNBR
20120920,ca3986612313320120818,North_Pass,l5,20110909,45,32,5045032001125210,l7,20120919,45,32,7045032001226310,no,n/a,83,126,191,BAER,Y,,dNBR
20120827,ca4001012127720120729,CHIPS,l5,20110902,44,32,5044032001124510,l7,20120827,44,32,7044032001224010,no,n/a,75,115,192,BAER,N,,dNBR
20120902,ca4001012127720120729,CHIPS,l5,20110902,44,32,5044032001124510,eo1,20120901,,,EO1A0440322012245110KF,no,n/a,75,115,192,BAER,Y,,dNBR
20120828,ca4038712182320120818,PONDEROSA,spot5,20120817,,,55292691208171851031J0,spot5,20120827,,,55302681208271858161J8,no,n/a,64,121,155,BAER,Y,,dNDVI
20120922,ca4054612309020120905,Stafford,l5,20110908,45,32,5045032001125110,l7,20120919,45,32,7045032001226310,no,n/a,65,109,187,BAER,Y,,dNBR
20120727,ca4079212335020120711,Flat,spot5,20100709,,,55272681007091908542J0,spot5,20120716,,,55272681207161907191J0,no,n/a,110,144,193,BAER,Y,,dNDVI
20120810,ca4083812232620120801,Salt_Creek,spot4,20120731,,,45282671207301821121I5,spot4,20120809,,,45282671208091828121I6,no,n/a,121,179,211,BAER,Y,,dNDVI
20120910,ca4099512207820120818,Bagley,deimos1,20120817,,,UK02_SL6_22S_1T_20120817T181528_20120817T181618_DMC_0_23fd,deimos1,20120905,,,DE01_SL6_22P_1T_20120905T184300_20120905T184431_DMI_0_4503,no,n/a,49,94,170,BAER,N,,dNDVI
20120912,ca4099512207820120818,Bagley,l5,20110909,45,31,5045031001125210,eo1,20120911,,,EO1A0450312012255110KF,no,n/a,72,99,197,BAER,Y,,dNBR
20120908,ca4188812325320120805,Fort_Complex,spot5,20120801,,,55252651208011858472J6,spot5,20120907,,,55262651209071846001J2,no,n/a,65,120,174,BAER,Y,,dNDVI
20120718,CO3740210724320120513,Little_Sand,deimos1,20110702,,,DE01_SL6_22P_1T_20110702T173435_20110702T173601_DMI_0_2f86,ukdmc2,20120711,,,UK02_SL6_22S_1T_20120711T172402_20120711T172452_DMC_0_20dd,no,n/a,74,113,155,BAER,Y,,dNDVI
20120717,co3888410493320120623,Waldo_Canyon,l7,20120611,33,33,7033033001216310,l7,20120713,33,33,7033033001219510,no,n/a,78,136,197,BAER,Y,,dNBR
20120409,CO3943610521720120326,Lower North Fork,l5,20110329,33,33,503303300118810,l7,20120408,33,33,7033033001209910,no,n/a,78,141,188,BAER,Y,,dNBR
20120815,id4227711406020120805,Cave_Canyon,l5,20110821,40,31,5040031001123310,l7,20120815,40,31,7040031001222810,no,n/a,75,109,187,BAER,Y,,dNBR
20120907,id4371111536820120803,Trinity_Ridge,l5,20110913,41,30,5041030001125610,l7,20120907,41,30,7041030001225110,no,n/a,85,136,200,BAER,Y,,dNBR
20120824,ID4409011605220120805,SPRINGS,deimos1,20120802,,,DE01_SL6_22S_1T_20120802T174813_20120802T174921_DMI_0_4359,ukdmc2,20120816,,,UK02_SL6_22S_1T_20120816T174550_20120816T174640_DMC_0_23e0,no,n/a,72,103,141,BAER,Y,,dNDVI
20120823,id4444511516620120727,Halstead,l5,20100825,41,29,5041029001023710,l7,20120822,41,29,7041029001223510,no,n/a,80,141,197,BAER,N,,dNBR
20120907,id4444511516620120727,Halstead,l5,20100825,41,29,5041029001023710,l7,20120907,41,29,7041029001225110,no,n/a,80,141,196,BAER,N,,dNBR
20121012,id4444511516620120727,Halstead,l5,20110929,41,29,5041029001127210,l7,20121009,41,29,7041029001228310,no,n/a,80,141,215,BAER,Y,,dNBR
20120930,id4509211653520120909,Wesley,l5,20110920,42,29,5042029001126310,l7,20120930,42,29,7042029001227410,no,n/a,75,109,187,BAER,Y,,dNBR
20120824,id4542411459020120730,Mustang_Complex,l5,20100825,41,28,5041028001023710,l7,20120822,41,28,7041028001223510,no,n/a,80,113,192,BAER,N,,dNBR
20120907,id4542411459020120730,Mustang_Complex,l5,20100825,41,28,5041028001023710,l7,20120907,41,28,7041028001225110,no,n/a,81,114,192,BAER,Y,,dNBR
20120930,id4553411629920120906,Sheep,l5,20110920,42,28,5042028001126310,l7,20120930,42,28,7042028001227410,no,n/a,75,109,187,BAER,Y,,dNBR
20121009,id4559711556320120827,McGuire_Complex,l5,20110929,41,28,5041028001127210,l7,20121009,41,28,7041028001228310,no,n/a,75,108,187,BAER,Y,,dNBR
20121018,id4678411523520120909,Elizabeth,deimos1,20110920,,,DE01_SL6_22S_1T_20110920T174928_20110920T175123_DMI_0_3499,deimos1,20121005,,,DE01_SL6_22S_1T_20121005T174000_20121005T174045_DMI_0_468b,no,n/a,59,98,139,BAER,N,,dNDVI
20121018,id4685311544520120909,Skull,deimos1,20110920,,,DE01_SL6_22S_1T_20110920T174928_20110920T175123_DMI_0_3499,deimos1,20121005,,,DE01_SL6_22S_1T_20121005T174000_20121005T174045_DMI_0_468b,no,n/a,36,72,106,BAER,Y,,dNDVI
20120627,MI4663708543320120524,Duck_Lake,l7,20110611,22,28,7022028001116210,l7,20120614,22,28,7022028001216610,no,n/a,90,150,212,BAER,Y,,dNBR
20120914,mt4516510588320120910,DUTCH,l5,20101002,35,29,5035029001027510,l7,20120913,35,29,7035029001225710,no,n/a,75,109,177,BAER,Y,,dNBR
20120909,mt4540011110320120828,MILLIE,spot5,20110915,,,55482581109151837462J0,spot5,20120908,,,55482581209081825112J0,no,n/a,77,126,147,BAER,Y,,dNDVI
20120911,mt4549611056620120829,Pine_Creek,l5,20110924,38,28,5038028001126710,eo1,20120907,,,EO1A0380282012251110KF,no,n/a,75,124,195,BAER,Y,,dNBR
20120821,MT4556111422120120706,Chrandal_Creek,deimos1,20110816,,,DE01_SL6_22S_1T_20110816T175101_20110816T175220_DMI_0_3249,ukdmc2,20120816,,,UK02_SL6_22S_1T_20120816T174550_20120816T174640_DMC_0_23e0,no,n/a,160,191,209,BAER,Y,,dNDVI
20120710,mt4566811195120120624,PONY,l5,20090707,39,28,5039028000918810,l7,20120707,39,28,7039028001218910,no,n/a,87,158,199,BAER,Y,,dNBR
20120923,mt4583610457120120914,Dugan,l5,20110912,34,28,5034028001125510,eo1,20120922,,,EO1A0460272009267110KF,no,n/a,83,139,196,BAER,Y,,dNBR
20121009,mt4622811430720120830,Sawtooth,spot4,20110924,,,45402571109241800261I0,spot4,20121007,,,45402571210071747242I0,no,n/a,120,156,192,BAER,Y,,dNDVI
20120914,mt4709411280520120822,East_Fork,l5,20100903,38,28,5038028001024610,eo1,20120913,,,EO1A0400272012257110PF,no,n/a,75,119,190,BAER,Y,,dNBR
20120810,mt4740911286820120712,Elbow_Pass_Complex,ukdmc2,20120724,,,UK02_SL6_22S_1T_20120724T173124_20120724T173214_DMC_0_21e2,deimos1,20120808,,,DE01_SL6_22S_1T_20120808T173522_20120808T173632_DMI_0_439a,no,n/a,41,78,96,BAER,N,,dNDVI
20121005,mt4740911286820120712,Elbow_Pass_Complex,deimos1,20110904,,,DE01_SL6_22P_1T_20110904T174745_20110904T174856_DMI_0_3387,ukdmc2,20120910,,,UK02_SL6_22S_1T_20120910T172446_20120910T172536_DMC_0_25ed,no,n/a,84,145,180,BAER,N,,dNDVI
20130131,mt4740911286820120712,Elbow_Pass_Complex,l5,20110906,40,27,5040027001124910,l7,20120916,40,27,7040027001226010,no,n/a,80,108,190,BAER,Y,,dNBR
20120917,mt4753011314920120730,Prisoner_Lake,spot4,20110813,,,45422531108131809411I6,spot4,20120916,,,45422541209161752211I0,no,n/a,115,149,172,BAER,Y,,dNDVI
20121010,mt4760011366720120728,Condon_Mountain,l5,20110929,41,27,5041027001127210,eo1,20121009,,,EO1A0410272012283110KF,no,n/a,75,108,179,BAER,Y,,dNBR
20121005,mt4780011318420120909,Wall_Creek,deimos1,20110926,,,DE01_SL6_22S_1T_20110926T173918_20110926T173952_DMI_0_3507,deimos1,20121002,,,DE01_SL6_22P_1T_20121002T174639_20121002T174723_DMI_0_4662,no,n/a,117,158,193,BAER,N,,dNDVI
20121005,mt4780011318420120909,Wall_Creek,deimos1,20110926,,,DE01_SL6_22S_1T_20110926T173918_20110926T173952_DMI_0_3507,deimos1,20121002,,,DE01_SL6_22P_1T_20121002T174639_20121002T174723_DMI_0_4662,no,n/a,117,158,193,BAER,Y,,dNDVI
20120803,ne4263110317120120722,ASH_CREEK,spot4,20110905,,,45662641109051727082I0,spot4,20120802,,,45662641208021721512I0,no,n/a,120,141,164,BAER,N,,dNDVI
20120906,ne4277610360020120828,Douthit Fire (Region_23_Complex),spot5,20120904,,,55662641209041802351J0,spot5,20120821,,,55662641208211732161J0,no,n/a,71,96,133,BAER,Y,,dNDVI
20120910,ne4282410260920120829,WELLNITZ,spot4,20120804,,,45662631208041642571I4,spot4,20120908,,,45672631209081707232I0,no,n/a,19,39,80,BAER,Y,,dNDVI
20120807,ne4284210010820120720,Region_24_Complex,l5,20110822,31,30,5031030001123410,l7,20120731,31,30,7031030001221310,no,n/a,117,191,229,BAER,Y,,dNBR
20120713,NM3216910466220120629,Horse_Canyon,ukdmc2,20120619,,,UK02_SL6_22P_1T_20120619T173707_20120619T173757_DMC_0_1f3d,ukdmc2,20120708,,,UK02_SL6_22S_1T_20120708T173055_20120708T173145_DMC_0_20a2,no,n/a,88,113,142,BAER,Y,,dNDVI
20120524,nm3326710859220120509,Whitewater-Baldy,l5,20110514,35,37,5035037001113410,l7,20120524,35,37,7035037001214510,no,n/a,75,109,187,BAER,N,,dNBR
20120528,nm3326710859220120509,Whitewater-Baldy,spot5,20110615,,,55612831106151811202J0,spot4,20120527,,,45612831205271717432I0,no,n/a,99,129,162,BAER,N,,dNDVI
20120601,nm3326710859220120509,Whitewater-Baldy,l5,20110608,34,37,5034037001115910,spot5,20120528,,,55612831205281812132J0,no,n/a,79,126,164,BAER,N,,dNDVI
20120603,nm3326710859220120509,Whitewater-Baldy,l5,20110608,34,37,5034037001115910,spot5,20120528,,,55612831205281812132J0,no,n/a,115,184,205,BAER,N,,dNDVI
20120605,nm3326710859220120509,Whitewater-Baldy,l5,20110608,34,37,5034037001115910,eo1,20120605,,,EO1A0350372012157110KF,no,n/a,75,109,205,BAER,N,,dNBR
20120620,nm3326710859220120509,Whitewater-Baldy,l5,20110608,34,37,5034037001115910,spot5,20120618,,,55612831206181807502J0,no,n/a,111,131,160,BAER,Y,,dNDVI
20120615,nm3341910582920120604,Little_Bear,l5,20080609,33,37,5033037000816110,eo1,20120613,,,EO1A0330372012164110KF,no,n/a,75,138,181,BAER,N,,dNBR
20120621,nm3341910582920120604,Little_Bear,l5,20080608,33,37,5033037000816010,spot4,20120618,,,45672831206181652462I0,no,n/a,92,137,170,BAER,Y,,dNDVI
20120627,nv3967911463320120612,North_Schell,spot5,20120606,,,55442701206061837352J0,spot4,20120625,,,45442701206251756352I0,no,n/a,84,122,147,BAER,Y,,dNDVI
20120822,NV4150711760120120810,Hanson,deimos1,20120803,,,DE01_SL6_22P_1T_20120803T181739_20120803T181934_DMI_0_4362,ukdmc2,20120817,,,UK02_SL6_22P_1T_20120817T181440_20120817T181530_DMC_0_23fd,no,n/a,66,90,124,BAER,Y,,dNDVI
20120822,nv4155611620920120809,Bull_Run_Complex,l5,20100825,41,31,5041031001023710,l7,20120822,41,31,7041031001223510,no,n/a,69,103,172,BAER,Y,,dNBR
20120823,or4211012080120120806,Barry_Point,spot5,20100804,,,55312661008041908452J0,spot5,20120822,,,55312651208221854092J0,no,n/a,59,90,122,BAER,N,,dNDVI
20120828,or4211012080120120806,Barry_Point,l5,20110817,44,31,5044031001122910,l7,20120827,44,31,7044031001224010,no,n/a,75,121,187,BAER,Y,,dNBR
20120906,or4417011876620120828,Parish_Cabin,spot4,20100913,,,45342611009131848092I0,spot4,20120905,,,45342611209051805561I0,no,n/a,80,130,150,BAER,Y,,dNDVI
20121006,or4417812169920120909,POLE_CREEK,l5,20110909,45,29,5045029001125210,l7,20121005,45,29,7045029001227910,no,n/a,75,145,190,BAER,Y,,dNBR
20120920,or4598611692820120820,Cache_Creek,ukdmc2,20120816,,,UK02_SL6_22S_1T_20120816T174550_20120816T174640_DMC_0_23e0,deimos1,20120917,,,DE01_SL6_22P_1T_20120917T181857_20120917T182022_DMI_0_4599,no,n/a,56,100,152,BAER,Y,,dNDVI
20120716,sd4338710375420120629,Parker_Peak,l5,20110719,33,30,5033030001120010,l7,20120713,33,30,7033030001219510,no,n/a,89,119,175,BAER,N,,dNBR
20120716,sd4338710375420120629,White_Draw,l5,20110719,33,30,5033030001120010,l7,20120713,33,30,7033030001219510,no,n/a,89,119,175,BAER,Y,,dNBR
20120730,sd4360210355020120719,Myrtle,spot4,20120718,,,45642621207181711042I1,spot4,20120728,,,45652621207281718052I3,no,n/a,125,160,190,BAER,Y,,dNDVI
20120906,sd4392110402520120904,KINNEY,l5,20110827,34,29,5034029001123910,l7,20120906,34,29,7034029001225010,no,n/a,76,110,187,BAER,N,,dNBR
20120918,sd4392110402520120904,KINNEY,spot4,20100911,,,45632611009111745502I0,spot4,20120913,,,45642621209131710462I0,no,n/a,86,119,152,BAER,Y,,dNDVI
20120710,UT3743511264420120702,Shingle,l5,20100704,38,34,5038034001018510,eo1,20120709,,,EO1A0380342012191110KF,no,n/a,64,132,175,BAER,Y,,dNBR
20120819,ut3752411382520120810,Little_Pine,l5,20110915,39,34,5039034001125810,eo1,20120818,,,EO1A0390342012231110KF,no,n/a,75,133,173,BAER,Y,,dNBR
20120608,ut3797611156320120604,Lake_Creek,l5,20110715,37,34,5037034001119610,l7,20120607,37,34,7037034001215910,no,n/a,74,106,184,BAER,Y,,dNBR
20120613,ut3823111150520120605,Lost_Lake,l5,20110715,37,34,5037034001119610,l7,20120608,37,34,7037034001216010,no,n/a,75,136,187,BAER,N,,dNBR
20120613,ut3845911206020120605,Box_Creek,deimos1,20120524,,,DE01_SL6_22P_1T_20120524T180611_20120524T180806_DMI_0_4025,deimos1,20120609,,,DE01_SL6_22P_1T_20120609T180341_20120609T180506_DMI_0_40d1,no,n/a,104,136,159,BAER,Y,,dNDVI
20120704,ut3932911237920120627,Clay_Springs,l7,20120614,38,33,7038033001216610,l7,20120630,38,33,7038033001218210,no,n/a,75,108,165,BAER,Y,,dNBR
20120714,ut3949911117520120626,Seeley,l5,20090709,37,33,5037033000919010,l7,20120709,37,33,7037033001219110,no,n/a,83,118,207,BAER,N,,dNBR
20120730,ut3949911117520120626,Seeley,l5,20100813,37,33,5037033001022510,eo1,20120725,,,EO1A0370322012207110KF,no,n/a,82,109,187,BAER,Y,,dNBR
20120720,ut3986511069320120624,CHURCH_CAMP,spot4,20110611,,,45532701206111726321I0,spot5,20120718,,,55522701207181828202J0,no,n/a,109,150,172,BAER,Y,,dNDVI
20120911,ut4043311193320120805,Pinyon,l5,20100820,38,32,5038032001023210,l7,20120817,38,32,7038032001223010,no,n/a,75,119,187,BAER,Y,,dNBR
20120706,ut4051911005120120627,POLE_CREEK,deimos1,20120618,,,DE01_SL6_22P_1T_20120618T174622_20120618T174736_DMI_0_4138,deimos1,20120701,,,DE01_SL6_22P_1T_20120701T175027_20120701T175158_DMI_0_41d6,no,n/a,49,70,106,BAER,Y,,dNDVI
20120927,wa4612512155020120909,CASCADE_CREEK,spot4,20100912,,,45272571009121907051I0,spot4,20120926,,,45262561209261759531I8,no,n/a,115,150,197,BAER,N,,dNDVI
20121007,wa4612512155020120909,CASCADE_CREEK,l5,20111027,45,28,5045028001130010,l7,20121005,45,28,7045028001227910,no,n/a,76,114,178,BAER,Y,,dNBR
20120911,wa4716512081620120813,Taylor_Bridge,l5,20110824,45,27,5045027001123610,l7,20120903,45,27,7045027001224710,no,n/a,87,149,178,BAER,Y,,dNBR
20121015,WA4718112076120120908,YAKIMA_COMPLEX,l5,20110909,45,28,5045028001125210,l7,20121005,45,28,7045028001227910,no,n/a,70,111,187,BAER,Y,,dNBR
20121005,wa4737112044920120909,Wenatchee_Complex,l5,20110909,45,27,5045027001125210,l7,20121005,45,27,7045027001227910,no,n/a,75,145,181,BAER,N,,dNBR
20121011,wa4737112044920120909,Wenatchee_Complex,l5,20110909,45,27,5045027001125210,eo1,20121010,,,EO1A0460272012284110KF,no,n/a,75,145,181,BAER,Y,,dNBR
20120713,wy4112010606920120630,SQUIRREL_CREEK,deimos1,20120617,,,DE01_SL6_22S_1T_20120617T171511_20120617T171636_DMI_0_412c,deimos1,20120710,,,DE01_SL6_22P_1T_20120710T173115_20120710T173234_DMI_0_4235,no,n/a,87,127,171,BAER,Y,,dNDVI
20120622,wy4218410537620120603,COW_CAMP,l5,20100620,34,31,5034031001017110,eo1,20120615,,,EO1A0340312012167110KF,no,n/a,79,109,179,BAER,Y,,dNBR
20120711,wy4220110549020120627,ARAPAHO,deimos1,20110721,,,DE01_SL6_22P_1T_20110721T173313_20110721T173428_DMI_0_30a5,deimos1,20120710,,,DE01_SL6_22P_1T_20120710T173115_20120710T173234_DMI_0_4235,no,n/a,116,150,205,BAER,Y,,dNDVI
20120709,wy4243611062020120624,Fontenelle,l5,20110722,38,30,5038030001120310,eo1,20120704,,,EO1A0380302012186110PF,no,n/a,95,159,200,BAER,Y,,dNBR
20120927,WY4339911075720120908,Horsethief_Canyon,deimos1,20120818,,,DE01_SL6_22P_1T_20120818T174545_20120818T174637_DMI_0_441a,deimos1,20120922,,,DE01_SL6_22S_1T_20120922T173448_20120922T173549_DMI_0_45da,no,n/a,85,126,171,BAER,Y,,dNDVI
20120809,WY4388011002420120702,Bear_Cub,deimos1,20110819,,,DE01_SL6_22P_1T_20110819T174416_20110819T174535_DMI_0_3279,deimos1,20120802,,,DE01_SL6_22P_1T_20120802T174813_20120802T174921_DMI_0_4359,no,n/a,49,70,96,BAER,Y,,dNDVI
20121010,wy4392511021120120824,North_Buffalo_,l5,20100930,37,30,5037030001027310,l7,20121004,38,29,7038029001227810,no,n/a,74,110,188,BAER,Y,,dNBR
20121010,wy4411310981120120725,Butte Creek,l5,20110924,38,29,5038029001126710,l7,20120918,38,29,7038029001226210,no,n/a,92,125,184,BAER,Y,,dNBR
20120925,WY4443210695920120814,GILEAD,deimos1,20110922,,,DE01_SL6_22S_1T_20110922T171325_20110922T171451_DMI_0_34ba,deimos1,20120917,,,DE01_SL6_22P_1T_20120917T181857_20120917T182022_DMI_0_4599,no,n/a,50,90,113,BAER,Y,,dNDVI
