# Logfile created on 2013-01-16 13:56:27 -0700 by logger.rb/v1.2.7
I, [2013-01-16T13:56:27.099000 #8180]  INFO -- : ############# Start of 209 data #################
I, [2013-01-16T13:57:21.012000 #8275]  INFO -- : ############# Start of 209 data #################
