#select fires.*# fires.id, fires.event_id, fires.ig_date, fires.srcdb, fires.old_mtbs_fire_id 
select fires.id, fires.event_id, mappings.id, mappings.postfire_path, mappings.postfire_row, postfire_scene_id
from mappings
inner join fires
on mappings.fire_id = fires.id
where mappings.program = "MTBS" and fires.event_id in
("AK6144314351520110530",
"AK6312215733120110527",
"AK6388515017320110709",
"AK6393214888720110521",
"AK6412414489420110526",
"AK6457015198620110529",
"AK6462014786520110709",
"AK6463715229020110530",
"AK6467115415220110707",
"AK6470814651420110515",
"AK6472815192120110531",
"AK6488015886220110525",
"AK6501714823320110530",
"AK6521814845920110530",
"AK6551714826520110529",
"AK6555615460020110525",
"AK6558015496420110525",
"AK6585616025320110526",
"AK6591716193320110605",
"AK6637414836620110527",
"AK6639815617820110707",
"AK6663315772120110611",
"AK6677015320120110708",
"AK6807815786220110708",
"AL3026908763820110625",
"AL3053908745520110605",
"AL3225508573520110304",
"AL3339808709920110604",
"AL3390408554520110219",
"AL3390908540120110222",
"AL3396208567820110220",
"AL3403408569120110222",
"AL3429908719620110221",
"AL3439508752220110220",
"AR3312109218220110322",
"AR3312109219320110323",
"AR3341409246120111013",
"AR3400909358820110904",
"AR3414609389520110403",
"AR3445509378920110914",
"AR3447309359820110729",
"AR3473409297020110712",
"AR3485409486020110804",
"AR3523409425720110728",
"AR3525709407720110803",
"AR3573609261420110320",
"AR3577409291720110414",
"AR3595109291920111004",
"AR3597009275620110321",
"AR3599409300520110115",
"AR3607709335020110412",
"AR3623709212520110323",
"AR3649009242620110323",
"AZ3133911054620110523",
"AZ3134011074320110214",
"AZ3134111110120110429",
"AZ3135511067320110510",
"AZ3135611113620110311",
"AZ3137911075620110320",
"AZ3149911031720110617",
"AZ3154111115820110530",
"AZ3155211041720110612",
"AZ3176511067520110420",
"AZ3177511075320110502",
"AZ3182010921120110508",
"AZ3198511002520110825",
"AZ3307311037720110626",
"AZ3326811118920110508",
"AZ3327111471120110829",
"AZ3330810964820111010",
"AZ3331811087020110817",
"AZ3338311046320110706",
"AZ3340011115020110828",
"AZ3351411132920110818",
"AZ3360210944920110529",
"AZ3383511101020110820",
"AZ3418911085320110801",
"AZ3422510948120110223",
"AZ3446711047420110623",
"AZ3446811148220110721",
"AZ3472511155020110718",
"AZ3472511155020110721",
"AZ3498711159420110709",
"AZ3537911193420110718",
"AZ3580711193420110820",
"AZ3585011202320110704",
"AZ3589711200120110826",
"AZ3598111192720110820",
"AZ3598411202120111001",
"AZ3599011395020110803",
"AZ3601111345320110908",
"AZ3603910916420110912",
"AZ3621711223520110704",
"AZ3626211381420110911",
"AZ3655111380820110709",
"AZ3689811363420110826",
"CA3309811647820111001",
"CA3327711653720110721",
"CA3393811708020110806",
"CA3435511743420110902",
"CA3507211843420110904",
"CA3511711878320110910",
"CA3511811837820110910",
"CA3536411577420110828",
"CA3539511864020110910",
"CA3550411987920110619",
"CA3564111839020110527",
"CA3575211893120110621",
"CA3581211884420110627",
"CA3626811851120110708",
"CA3713411828320110913",
"CA3766311970420110731",
"CA3766311987120110825",
"CA3794512084420110909",
"CA4024312331620110923",
"CA4165512145820110608",
"CA4180512136320110715",
"CA4189912012320110818",
"CO3721210402120110530",
"CO3747210346920110607",
"CO3756710383820110605",
"CO3759610365120110607",
"CO3766210355320110723",
"CO3770310335220110603",
"CO3781310378320110219",
"CO3797710376220110322",
"CO3800010300020110407",
"CO3823310568320110612",
"CO3825210820820110803",
"CO3853710472820110629",
"CO3874510365520110324",
"CO3925110844620110807",
"CO3940010473020110324",
"CO3976210526320110320",
"CO4053710538120110401",
"FL2521008106120110405",
"FL2540708107120110531",
"FL2573308053320110801",
"FL2580408046920110605",
"FL2590308056720110119",
"FL2594708128120110207",
"FL2595808072220110302",
"FL2596508136820110124",
"FL2596508136820110217",
"FL2602508124820110728",
"FL2606108130020110201",
"FL2608108153020110105",
"FL2611508146420110512",
"FL2613508154920110208",
"FL2615608074220110208",
"FL2616008100120111026",
"FL2616808157120110426",
"FL2618208046720110225",
"FL2620308116120110613",
"FL2624008083820110201",
"FL2624008085420110107",
"FL2624308122420110613",
"FL2625408061120111222",
"FL2629508094220110202",
"FL2632608054720110818",
"FL2632708084120110414",
"FL2633308119620110420",
"FL2636808071420111206",
"FL2636808072920111110",
"FL2638408076220111116",
"FL2647208129520110223",
"FL2662708119320110209",
"FL2664008131620110217",
"FL2664108037220110213",
"FL2682108180220110224",
"FL2683508193220110118",
"FL2683608183320110217",
"FL2684908193120110323",
"FL2685008162220111228",
"FL2685308142720110418",
"FL2685408155520110412",
"FL2685608158920110330",
"FL2686308169520110216",
"FL2686408141720110105",
"FL2686408184420111206",
"FL2686408187620110411",
"FL2686508194220111207",
"FL2686708188220110203",
"FL2687208160420110309",
"FL2687308154420110502",
"FL2687408163520110223",
"FL2687508192220110119",
"FL2687708039320110728",
"FL2687808155520110428",
"FL2688808179420110406",
"FL2688908184320110314",
"FL2689308170620110218",
"FL2689408168820110201",
"FL2689808118620110124",
"FL2690608051620110803",
"FL2690908182620110317",
"FL2691708183520110307",
"FL2692108041020110921",
"FL2692208143020110112",
"FL2692308184220110208",
"FL2692308189220111004",
"FL2692308189320110815",
"FL2692808045720110607",
"FL2693608045920110530",
"FL2694308032420110422",
"FL2694408111120110125",
"FL2694808135020110202",
"FL2695008054420111004",
"FL2696508057220110815",
"FL2699308016620110818",
"FL2699708117020110218",
"FL2701808187420110224",
"FL2702308128720110425",
"FL2704008113820110217",
"FL2704808115120110112",
"FL2706008126820110514",
"FL2706308117520110107",
"FL2707908016820110518",
"FL2709208059520110418",
"FL2709208115220110118",
"FL2709908112720110120",
"FL2709908160420111230",
"FL2710308092320110921",
"FL2712808228720111115",
"FL2713008113520110128",
"FL2714408110220110131",
"FL2714508204720110113",
"FL2715308224320110411",
"FL2715708137320110223",
"FL2718908236720110426",
"FL2719508224520110605",
"FL2719608227020110524",
"FL2719808232420110510",
"FL2722308221320110511",
"FL2722608153820110201",
"FL2723008220320110504",
"FL2723108227720110518",
"FL2723108232820110429",
"FL2723308170020110201",
"FL2724108225320110419",
"FL2724308210620110111",
"FL2725308226820110414",
"FL2725608155520110113",
"FL2727108226820110216",
"FL2728408227820110324",
"FL2741508075420110314",
"FL2742408193820110314",
"FL2750108115020110222",
"FL2750308219520110714",
"FL2751808067120110128",
"FL2752708125520110114",
"FL2754608218720110713",
"FL2755108122220110411",
"FL2755108158820110114",
"FL2756508103920110712",
"FL2757408108420110829",
"FL2757508091420110210",
"FL2757508091420110323",
"FL2758308098220110407",
"FL2760108108920110821",
"FL2760308137620111202",
"FL2761308108020110724",
"FL2762608120320110407",
"FL2763108200620110316",
"FL2763608102220110529",
"FL2765308130220110511",
"FL2765708096620110817",
"FL2766408106420110224",
"FL2768608103820110203",
"FL2768808108920110131",
"FL2771708103820110413",
"FL2772608130120110119",
"FL2772608138320110419",
"FL2773008103820110307",
"FL2773208108920110216",
"FL2776008089220110916",
"FL2777708137620110226",
"FL2778408210420110518",
"FL2781408114220110315",
"FL2782708060220110727",
"FL2783408115520110713",
"FL2783608114220110314",
"FL2785308115820110119",
"FL2785708054020110728",
"FL2785708089720111229",
"FL2786908117620110812",
"FL2787308089720110131",
"FL2789608119620110719",
"FL2793108110920110408",
"FL2793108112920110722",
"FL2793208103520110414",
"FL2793208115820110728",
"FL2793808109220110706",
"FL2794308116120110720",
"FL2795008104320110721",
"FL2796008112420110217",
"FL2796008114120110316",
"FL2796908109020110711",
"FL2797408101420110729",
"FL2800408087020110120",
"FL2802208081420110128",
"FL2802208127220110317",
"FL2802508134120111222",
"FL2802708089520110219",
"FL2803708130820110323",
"FL2804008095320110202",
"FL2804208128520110316",
"FL2804908087420110128",
"FL2804908098120110316",
"FL2804908134020110315",
"FL2805408102220110120",
"FL2805408134920110504",
"FL2806308109220111116",
"FL2806608138020110428",
"FL2810108128720111214",
"FL2810208101720110801",
"FL2812008213020110202",
"FL2821508208820110526",
"FL2827308080320110315",
"FL2830608078620110215",
"FL2831208108720110909",
"FL2832408209620110414",
"FL2833108109320110527",
"FL2833208194120110805",
"FL2833708114420111209",
"FL2833808201520110216",
"FL2833908089420110530",
"FL2835308211320110308",
"FL2835908106420110530",
"FL2836508113620110316",
"FL2837108198520110818",
"FL2838208186020110226",
"FL2838908194020110921",
"FL2839508110620110514",
"FL2839608193220110322",
"FL2839708194820110909",
"FL2841108196520110915",
"FL2842708211320110413",
"FL2845308084220110415",
"FL2848108112820111207",
"FL2848308111220111201",
"FL2850308070820110430",
"FL2850408090020110412",
"FL2852808088720110215",
"FL2853008201420110203",
"FL2855108057120110806",
"FL2855408085420110226",
"FL2857708062920110805",
"FL2857908228920110112",
"FL2859108092220110216",
"FL2859908229420111215",
"FL2860008227620110311",
"FL2860208226020111214",
"FL2861508227720110127",
"FL2861608229320110720",
"FL2867608098920110221",
"FL2871408098020110429",
"FL2874208096620110228",
"FL2875008244320110815",
"FL2876108237720110407",
"FL2876208244320110720",
"FL2877208241020111130",
"FL2879308219520110224",
"FL2879608244620110412",
"FL2880008242220110112",
"FL2881408244220111110",
"FL2882108222820110930",
"FL2883608244420110127",
"FL2884308102420110613",
"FL2887908140120110128",
"FL2898108157120110727",
"FL2902008160020110715",
"FL2902508160120110713",
"FL2902608155620110706",
"FL2903908157020110719",
"FL2904208160020110712",
"FL2904708158520110716",
"FL2907608154520110215",
"FL2912508148520110928",
"FL2913308194020110214",
"FL2913508145620111201",
"FL2914208191320110729",
"FL2915108146820111201",
"FL2917908259420110426",
"FL2918008143420110216",
"FL2918708191320110403",
"FL2920808151820110215",
"FL2921408261520110426",
"FL2924908174620110214",
"FL2925408190620110430",
"FL2928808189920110218",
"FL2933408175120110806",
"FL2933408178320110729",
"FL2935908309320110804",
"FL2936208181720110729",
"FL2937408153220110430",
"FL2942208178320110716",
"FL2942908168920110228",
"FL2943508181720110402",
"FL2943708178420111220",
"FL2945008180020110714",
"FL2945108173120110215",
"FL2946008171520110618",
"FL2946408183420110402",
"FL2946608180020110730",
"FL2947908182620111222",
"FL2954508136820110530",
"FL2963608198220111114",
"FL2965008514520110603",
"FL2965308201920110217",
"FL2967408513220110805",
"FL2968408132820110228",
"FL2970008346220110302",
"FL2975008510920110217",
"FL2975508508020110314",
"FL2977108485420110217",
"FL2979708484520110124",
"FL2979808507920111201",
"FL2980108512120110612",
"FL2981408212220110608",
"FL2986108479920111109",
"FL2986608507320110216",
"FL2986808199520110510",
"FL2987208477120111206",
"FL2989008485420111213",
"FL2989308516120110609",
"FL2990708466120110419",
"FL2990908198220110426",
"FL2991508195620110425",
"FL2991608468120111108",
"FL2993408453720111220",
"FL2993608496320110214",
"FL2993808466920110411",
"FL2994008459920110221",
"FL2995708462620110215",
"FL2997508489520110413",
"FL2997608476320110406",
"FL2998208477520110228",
"FL2998708490520110408",
"FL2999208491120110222",
"FL2999408456820110407",
"FL3000808198720110224",
"FL3000808201520110217",
"FL3001608502520110104",
"FL3001908386620110214",
"FL3002608466720110816",
"FL3005308554320110220",
"FL3010808455820110224",
"FL3011508234720110812",
"FL3012508455520110223",
"FL3013108507920110107",
"FL3014408499520110124",
"FL3014508459520110222",
"FL3015108506020110218",
"FL3016508452720110216",
"FL3016608473720110113",
"FL3017808416020110311",
"FL3019908452020110216",
"FL3019908460420110215",
"FL3019908493820111130",
"FL3020108456420110215",
"FL3020608438920110201",
"FL3023008458420110811",
"FL3023308248520110127",
"FL3023508237520110213",
"FL3023908401620110315",
"FL3024008492920110108",
"FL3024408499320111202",
"FL3024508236920111109",
"FL3024508250120110811",
"FL3024608450620110128",
"FL3024608457020110115",
"FL3026808455520110804",
"FL3028108240820110131",
"FL3028108249720110129",
"FL3029308468520110214",
"FL3030808254220110104",
"FL3030908395120110301",
"FL3031208494220110804",
"FL3031408485320110114",
"FL3031908448020111220",
"FL3032008420220110214",
"FL3032908437720110812",
"FL3034708433120110501",
"FL3035208387420110314",
"FL3035208598620110817",
"FL3035908427620110805",
"FL3036308391620110308",
"FL3036508232120110115",
"FL3036608258920110108",
"FL3037408389820110316",
"FL3037608246520110812",
"FL3038008392520110223",
"FL3038908586620110113",
"FL3039008238920110902",
"FL3039108243420110812",
"FL3039108244620110114",
"FL3040208391820110307",
"FL3040508232020110109",
"FL3040608562620110129",
"FL3040908248020110606",
"FL3040908448720110127",
"FL3041208238120110124",
"FL3041608405620110314",
"FL3041708390220110216",
"FL3042008399120110407",
"FL3042108260020110128",
"FL3043008588320110113",
"FL3043308676120111205",
"FL3043408388920110322",
"FL3044808304720110429",
"FL3046008678520110221",
"FL3047408678620110220",
"FL3048108622620110126",
"FL3048508524320110413",
"FL3048708496520110505",
"FL3048808679120111204",
"FL3048908680720110320",
"FL3050108673620111120",
"FL3050608674720111230",
"FL3051308684920110206",
"FL3051908668120111202",
"FL3052008414320110223",
"FL3052608258420110616",
"FL3052808694420110117",
"FL3052908681320110516",
"FL3053008670320111120",
"FL3053208666920111230",
"FL3053308547920110311",
"FL3053608678920110212",
"FL3054208598120110217",
"FL3054208677320110501",
"FL3054308402620110308",
"FL3054708683420110108",
"FL3055208662420110123",
"FL3055808686220111216",
"FL3055908659320110308",
"FL3055908661220110304",
"FL3056308687120111227",
"FL3056408668820111112",
"FL3056708400920110312",
"FL3056708667020111202",
"FL3057408327420110201",
"FL3057408402320110307",
"FL3057408629120110312",
"FL3057408683120110124",
"FL3057508678020111111",
"FL3057608675420111122",
"FL3059208682020110219",
"FL3059308651520110107",
"FL3059408631920110411",
"FL3059508413220110324",
"FL3059908628520111210",
"FL3060208632020110226",
"FL3060308375420110321",
"FL3060308419720110404",
"FL3060308681120110416",
"FL3060608375020110317",
"FL3060708633320110106",
"FL3060808618520111219",
"FL3060908398320110316",
"FL3061108430820110308",
"FL3061208671920110211",
"FL3061408394920110322",
"FL3061408646620110225",
"FL3061408650220110218",
"FL3061608622820110323",
"FL3061708420720110406",
"FL3061808666220110407",
"FL3061808670220110214",
"FL3062508402620110308",
"FL3062708644320110820",
"FL3062808669920110213",
"FL3063008398020110407",
"FL3063108460920110223",
"FL3063108661020110804",
"FL3063208370620110318",
"FL3063308621920110112",
"FL3063408414920110315",
"FL3063808666920110413",
"FL3064308658120110109",
"FL3064408668820110729",
"FL3064508397320110315",
"FL3064608399920110411",
"FL3064708623320110114",
"FL3065308629920110724",
"FL3065408393220110411",
"FL3065408402420110302",
"FL3065508419420110317",
"FL3065508665020110302",
"FL3065508665520110124",
"FL3065808627520110208",
"FL3065908415620110311",
"FL3065908621220110122",
"FL3066108411020110322",
"FL3066408395220110317",
"FL3066508412420110314",
"FL3067008408520110308",
"FL3067208691220110226",
"FL3067608413120110316",
"FL3067608432020110312",
"FL3067608692020110403",
"FL3067808625720110731",
"FL3067808645820110730",
"FL3068808636120110311",
"FL3069308682020110414",
"FL3069808631520110307",
"FL3070008686220110213",
"FL3071008682820110129",
"FL3071108626620110308",
"FL3074608683320111204",
"FL3074708681920111203",
"FL3075708679520110128",
"FL3076308676220110113",
"FL3076508685420110925",
"FL3077908686420110422",
"FL3078608686720110421",
"FL3079708678620110115",
"FL3080008677420110316",
"FL3080608681220110212",
"FL3081608686020110116",
"FL3083608686020110730",
"FL3083908693420110314",
"FL3084108681720110930",
"FL3085808682920110224",
"FL3085908675020110303",
"FL3087408683620111118",
"FL3088408682920110919",
"FL3088508670620110108",
"FL3088908664920110128",
"FL3089008671520110209",
"FL3089508684820110813",
"FL3089608687320111111",
"FL3090608501720110222",
"FL3091108697820110308",
"FL3091308675620110224",
"FL3091708687020111003",
"FL3091808684220110214",
"FL3092808672720110413",
"FL3093108673220111006",
"FL3093708690520110216",
"FL3093808677020110214",
"FL3093808699320110424",
"FL3094308692920110217",
"FL3094508672220110127",
"FL3096008673820110216",
"FL3096508681920110731",
"FL3097108687820110408",
"FL3097408661120110317",
"FL3098308695520110317",
"FL3098408694820110407",
"FL3098908680020110215",
"FL3098908684320110410",
"FL3098908697520110127",
"GA3073008236920110430",
"GA3086808215920110606",
"GA3086808245120110701",
"GA3098208214620110615",
"GA3099108211120110525",
"GA3110508167620110614",
"GA3110908209420110228",
"GA3113108287620110324",
"GA3119808251620110615",
"GA3138108190320110614",
"GA3142808246820110324",
"GA3143908142820110313",
"GA3158508288520110324",
"GA3172708175020110324",
"GA3308008371020110303",
"GA3309008373020110324",
"GA3310308370720110312",
"GA3313608370520110222",
"GA3444208436520110322",
"GA3497408547220110214",
"IA4182809212220110403",
"IA4188409227520110403",
"ID4201911522420110803",
"ID4214911464620110806",
"ID4224811280920110809",
"ID4238811485020110730",
"ID4240411508520110804",
"ID4266311590220110814",
"ID4270211428120110713",
"ID4274711279320110821",
"ID4276311539120111002",
"ID4280911470420110901",
"ID4283111240020110815",
"ID4285511571220111001",
"ID4286211512120110804",
"ID4286811452720110804",
"ID4295111354520110821",
"ID4297611532920110815",
"ID4299211488320110804",
"ID4307411529820110815",
"ID4309111535220110804",
"ID4312311575820110831",
"ID4317211595820110815",
"ID4319711613820110718",
"ID4320311617420110728",
"ID4324411626620110804",
"ID4324811270920110809",
"ID4336611612920110815",
"ID4346111623420110815",
"ID4350011613420110721",
"ID4365211280320110825",
"ID4377711654320110719",
"ID4390811297320110831",
"ID4420911535720110804",
"ID4457811525020110812",
"ID4498311423620110825",
"ID4542211415020110717",
"ID4551711451120110818",
"ID4583511503020110805",
"ID4603811522020110802",
"ID4635811475620110825",
"ID4645711532920110805",
"ID4650611450320110802",
"IN3885808542320110314",
"IN3901708541820110414",
"KS3701309685220110506",
"KS3701609680020110506",
"KS3702309605920110506",
"KS3705109660320110506",
"KS3707009648920110411",
"KS3707409657020110411",
"KS3707910189920110508",
"KS3708409680420110411",
"KS3713109615020110412",
"KS3714709630920110412",
"KS3715809600120110412",
"KS3717409615220110412",
"KS3719709624320110412",
"KS3719709658420110506",
"KS3720209641520110411",
"KS3720609666620110411",
"KS3722609626620110506",
"KS3725009966720110805",
"KS3725409667120110506",
"KS3726409605120110412",
"KS3727009610920110506",
"KS3727309618920110412",
"KS3728609666620110411",
"KS3729109608720110412",
"KS3730509661420110506",
"KS3731909637620110506",
"KS3733310116720110403",
"KS3733509670420110411",
"KS3736309652420110506",
"KS3736709689420110506",
"KS3738309668420110506",
"KS3739609682820110411",
"KS3740409659120110411",
"KS3740509652120110506",
"KS3741409666020110506",
"KS3741509646620110506",
"KS3742509619520110506",
"KS3742509682120110506",
"KS3743309658420110506",
"KS3744009646020110506",
"KS3744309663120110506",
"KS3744809610020110412",
"KS3745309654920110506",
"KS3746409638520110411",
"KS3747209682720110411",
"KS3748109697520110411",
"KS3748609671620110506",
"KS3748909641620110506",
"KS3749009675120110411",
"KS3750409685320110411",
"KS3750909636120110411",
"KS3750909648620110506",
"KS3751109654520110411",
"KS3751309670120110411",
"KS3751509605520110506",
"KS3751609599720110412",
"KS3752009660520110506",
"KS3752109674520110411",
"KS3754709666620110411",
"KS3757309657820110411",
"KS3757909669420110506",
"KS3761609650320110411",
"KS3761909656320110506",
"KS3762409643820110506",
"KS3765309672820110411",
"KS3765809644320110411",
"KS3766409649420110506",
"KS3766809639220110411",
"KS3767609598020110412",
"KS3768309661920110506",
"KS3769709602920110506",
"KS3770209634320110506",
"KS3772109656120110506",
"KS3772909608420110412",
"KS3772909645620110411",
"KS3773609630720110411",
"KS3774209648720110506",
"KS3774809588320110506",
"KS3775809610620110506",
"KS3776309599920110506",
"KS3776409506220110413",
"KS3777509636520110506",
"KS3778109626620110411",
"KS3778409605620110506",
"KS3778409652920110411",
"KS3779109588020110412",
"KS3779709611620110506",
"KS3779709655620110506",
"KS3781209624220110411",
"KS3784109623920110411",
"KS3784809578620110506",
"KS3784909612720110412",
"KS3785209581020110506",
"KS3785209604420110506",
"KS3785509575720110412",
"KS3785709632320110506",
"KS3786409656120110506",
"KS3788509624720110411",
"KS3788709580820110412",
"KS3788909670320110411",
"KS3789109682320110411",
"KS3789209606920110412",
"KS3789209701820110411",
"KS3789709664620110506",
"KS3789809652620110411",
"KS3790209589020110506",
"KS3792309603820110506",
"KS3792609612320110506",
"KS3793209690720110411",
"KS3793709667520110506",
"KS3794009682020110506",
"KS3795009596720110506",
"KS3795109611220110412",
"KS3795909569720110412",
"KS3795909591920110412",
"KS3795909603820110506",
"KS3796309586720110412",
"KS3796509622020110506",
"KS3797209606620110412",
"KS3798009661920110506",
"KS3798609609820110506",
"KS3798609637320110506",
"KS3798909621920110506",
"KS3799209674620110506",
"KS3799509655220110411",
"KS3801309658820110506",
"KS3801409595220110412",
"KS3801809649520110506",
"KS3803109604720110506",
"KS3803209639120110506",
"KS3803509678720110506",
"KS3804309601320110506",
"KS3804409669520110506",
"KS3804809608020110506",
"KS3804909586320110506",
"KS3805009618920110506",
"KS3805809675620110411",
"KS3805909612720110506",
"KS3806109575220110412",
"KS3807209637920110411",
"KS3808309592820110506",
"KS3808309596720110506",
"KS3808409612920110411",
"KS3808809850820110413",
"KS3809009670220110506",
"KS3809309648320110411",
"KS3809809623920110506",
"KS3810109677120110506",
"KS3810909618420110411",
"KS3811109613920110506",
"KS3811509652520110506",
"KS3811809629920110411",
"KS3812909834420110410",
"KS3813309650620110506",
"KS3813509647120110506",
"KS3814409670420110506",
"KS3814609623420110411",
"KS3814709662120110411",
"KS3815409647820110411",
"KS3815909631320110411",
"KS3816409521620110413",
"KS3816509667520110411",
"KS3816709645720110411",
"KS3816909651220110411",
"KS3818709670820110411",
"KS3819009607120110411",
"KS3819909626220110411",
"KS3820209652920110506",
"KS3820209847420110503",
"KS3820409632620110506",
"KS3821109629420110506",
"KS3822709653720110411",
"KS3823109664920110506",
"KS3823709634820110506",
"KS3823709658920110506",
"KS3825409797620110310",
"KS3825409804920110411",
"KS3825709647020110506",
"KS3825709656720110411",
"KS3827909643120110411",
"KS3828109666520110506",
"KS3828209654920110506",
"KS3828609580420110406",
"KS3830109690620110411",
"KS3830409653320110411",
"KS3831609584020110412",
"KS3832409586420110506",
"KS3833509678920110411",
"KS3833709656120110411",
"KS3833909633420110506",
"KS3834209652220110506",
"KS3837409639520110506",
"KS3837509670420110506",
"KS3839709647920110411",
"KS3840609667120110506",
"KS3841209644120110506",
"KS3841309652120110412",
"KS3842509669120110411",
"KS3842909658120110407",
"KS3844309592120110506",
"KS3844309648220110406",
"KS3844509577320110506",
"KS3845309682620110411",
"KS3845609643920110506",
"KS3845809728720110411",
"KS3845909635820110411",
"KS3847209734420110411",
"KS3847709609420110411",
"KS3847809657420110408",
"KS3848409594320110506",
"KS3848609599020110506",
"KS3848709676820110411",
"KS3849009574320110506",
"KS3849009641320110411",
"KS3849509661920110411",
"KS3851109604720110506",
"KS3851309635620110411",
"KS3851309638920110506",
"KS3851809648220110506",
"KS3852209600520110411",
"KS3853609586420110506",
"KS3854109665420110506",
"KS3854909571220110412",
"KS3855509608720110506",
"KS3855709599720110506",
"KS3856609650820110506",
"KS3857109661220110411",
"KS3857909630720110506",
"KS3858209653420110506",
"KS3858709719220110411",
"KS3859109594220110506",
"KS3859109663920110411",
"KS3860209672220110411",
"KS3861009655420110411",
"KS3861609680120110411",
"KS3861609727920110411",
"KS3862309786320110411",
"KS3862609633520110411",
"KS3862809648120110506",
"KS3863009619920110411",
"KS3863509628120110506",
"KS3863709640520110506",
"KS3864509631820110506",
"KS3865109644020110411",
"KS3865509572620110506",
"KS3866709653720110506",
"KS3867209613420110506",
"KS3867509800320110411",
"KS3868209608520110411",
"KS3868209643720110506",
"KS3868809616220110506",
"KS3868809633520110506",
"KS3868909640620110411",
"KS3869409657020110506",
"KS3870309624420110411",
"KS3871209630620110506",
"KS3872009653120110411",
"KS3872309621120110506",
"KS3872609646120110506",
"KS3872609777120110411",
"KS3872709786320110411",
"KS3872809613320110411",
"KS3874309639320110506",
"KS3874409629320110506",
"KS3875709605520110411",
"KS3875809657420110411",
"KS3878009613720110411",
"KS3878009633220110506",
"KS3883309622420110506",
"KS3886209632920110506",
"KS3886209687320110411",
"KS3888609617420110506",
"KS3888809610320110506",
"KS3888809622220110506",
"KS3890409624920110411",
"KS3890909648320110411",
"KS3890909651220110506",
"KS3891309617520110411",
"KS3891309639420110411",
"KS3892509631720110411",
"KS3893809669920110411",
"KS3894509649420110506",
"KS3896609642420110506",
"KS3897309628920110506",
"KS3897709618420110506",
"KS3899009652520110506",
"KS3899509637520110411",
"KS3899809646720110506",
"KS3900209602520110506",
"KS3901009624320110411",
"KS3901309619320110411",
"KS3901509634120110506",
"KS3901509664820110411",
"KS3902209640420110506",
"KS3902709590720110506",
"KS3902809597520110506",
"KS3903309623420110506",
"KS3903409612020110506",
"KS3904009644420110506",
"KS3904209618920110411",
"KS3905409631120110506",
"KS3907809632120110506",
"KS3908009625920110310",
"KS3908409641320110506",
"KS3909809622820110506",
"KS3910409610520110506",
"KS3910609606720110411",
"KS3912209639320110506",
"KS3913809613120110506",
"KS3914309626320110506",
"KS3920109601020110411",
"KS3925309653520110411",
"KS3925809619320110506",
"KS3926509621420110411",
"KS3926709687520110411",
"KS3932609618820110506",
"KS3934709615620110411",
"KS3938409593320110413",
"KS3939309600620110411",
"KS3945509768620110411",
"KS3950009648320110411",
"KS3951509733220110411",
"KS3953109647420110411",
"KS3958310200020110316",
"KS3964909918520110418",
"KY3665208456620110407",
"KY3774208242620110215",
"LA2983809357120110516",
"LA2985409371620110301",
"LA2986309375320110228",
"LA2992909347420110703",
"LA2994509357520110225",
"LA2995709357820110618",
"LA3007808990820110824",
"LA3037309350820110612",
"LA3205609306220110902",
"LA3280009399120110913",
"LA3287709403420110906",
"MD3836707595520110214",
"MD3838507598720110216",
"MD3839507605820110105",
"MD3839507609820110104",
"MD3840507599120110214",
"MD3900907671420110219",
"MI4471508481120110607",
"MI4626208604220110804",
"MN4720209633320111201",
"MN4790609152420110817",
"MN4828309604620111024",
"MN4828509603420110517",
"MN4836309603120110928",
"MN4883009632220111005",
"MO3650909258220110406",
"MO3651209243720110323",
"MO3656309178720110323",
"MO3665409281520110414",
"MO3667809121320110219",
"MO3678809105620110517",
"MO3679409293620110403",
"MO3680009287920110323",
"MO3685409116520110517",
"MO3691809127620110403",
"MO3693709098320110321",
"MO3703509125420110405",
"MO3705609130520110517",
"MO3705909137220110220",
"MO3709509098120110323",
"MO3714409115920110324",
"MO3716109092920110409",
"MO3747209133720111101",
"MO3765809115520110403",
"MO3769509099720110403",
"MO3778809294120110322",
"MS3034108946220110620",
"MS3042608873120110611",
"MS3047108928020110321",
"MS3068108899320110526",
"MS3072508938120110528",
"MS3107908910820110613",
"MS3108608911920110604",
"MS3320908892820110317",
"MS3322508885620110129",
"MS3324508880320110217",
"MS3466608913820110312",
"MS3476308832320110220",
"MT4504711043920110729",
"MT4517010618320110822",
"MT4526310580220110822",
"MT4550311253520111001",
"MT4553410668420110822",
"MT4555111331620110824",
"MT4563111461820110828",
"MT4568210688720110822",
"MT4577310607420110822",
"MT4578210884420110829",
"MT4583610601620110822",
"MT4596311360620110828",
"MT4608711387620110812",
"MT4620711367720110806",
"MT4622211394220110828",
"MT4671611388820110822",
"MT4751811328120110719",
"MT4751911341120110816",
"MT4786611371620110813",
"MT4820911323720110909",
"MT4827710886020111001",
"MT4846810435520110427",
"NC3440107772520110219",
"NC3460407753620110323",
"NC3487107877820110221",
"NC3539408225920110212",
"NC3559707580020110505",
"NC3561207546920110329",
"NC3651307597020110215",
"NC3652807593720110303",
"NC3654908086820110214",
"ND4759110337920110914",
"NE4139410051820111004",
"NE4188410083120110508",
"NE4191010026720110405",
"NE4198910022620110506",
"NE4198910078120110422",
"NM3133610881020110330",
"NM3135610886320110507",
"NM3158510868020110731",
"NM3165910870720110613",
"NM3193110835220110619",
"NM3201910437020110310",
"NM3202810492620110224",
"NM3208110317520110426",
"NM3208610472220110720",
"NM3209910424820110213",
"NM3212110468320110806",
"NM3217510449020110613",
"NM3218910476820110510",
"NM3219910458420110605",
"NM3223310475220110424",
"NM3225810312720110806",
"NM3229310648820110421",
"NM3234910450720110807",
"NM3235010584620110411",
"NM3238510580520110701",
"NM3240310490220110720",
"NM3241610542920110809",
"NM3242810655220110610",
"NM3255810648420110726",
"NM3257210553420110603",
"NM3258910518820110602",
"NM3260710436220110227",
"NM3261410729020110403",
"NM3271410338420110609",
"NM3272110829320110307",
"NM3278110553420110628",
"NM3283410474820110315",
"NM3287010548020110509",
"NM3290010309120110509",
"NM3292610378420110625",
"NM3292710357320110425",
"NM3294410345020110429",
"NM3294610352520110509",
"NM3300510380120110123",
"NM3304910510820110808",
"NM3305810489320110506",
"NM3307110526320110802",
"NM3307510377520110227",
"NM3309810388420110903",
"NM3313310507720110818",
"NM3314410836920110428",
"NM3315310363820110324",
"NM3317110540120110628",
"NM3318110375420110429",
"NM3322110372620110525",
"NM3322210500120110807",
"NM3326510554820110112",
"NM3328410853220110711",
"NM3329610850520110711",
"NM3330110523720110628",
"NM3333310563620110403",
"NM3340410345720110510",
"NM3342610506820110601",
"NM3351210349420110409",
"NM3352910849720110722",
"NM3364310494920110221",
"NM3369010357020110227",
"NM3369510333420110522",
"NM3370010486420110601",
"NM3375910483320110720",
"NM3408810392020110730",
"NM3408810440520110416",
"NM3410910475620110627",
"NM3433310361920110417",
"NM3434710522620110713",
"NM3436110411620110711",
"NM3437710409320110810",
"NM3442210356320110517",
"NM3444310680520110402",
"NM3444710387920110410",
"NM3461110428620110618",
"NM3464910402220110412",
"NM3469410372520110618",
"NM3485810491220110401",
"NM3487210425920110721",
"NM3499910519320110507",
"NM3526810361420110409",
"NM3566810363120110702",
"NM3572010336220110709",
"NM3572810657220110817",
"NM3577210370320110702",
"NM3581210583720110618",
"NM3581210654120110626",
"NM3609510506220110605",
"NM3645510259320110525",
"NM3651510314920110409",
"NM3692010445620110612",
"NM3700010423620110526",
"NV3691011627320110705",
"NV3705411645220110705",
"NV3719411461620110829",
"NV3735511477120110825",
"NV3823411935020110925",
"NV3883611939320110930",
"NV3884811963920110816",
"NV3947511985120111118",
"NV3950411848320110304",
"NV3951511964820111123",
"NV3973911926920110729",
"NV3975511921920110702",
"NV3991711980520110730",
"NV3997911943320110824",
"NV3998511750620110827",
"NV4022411747320110624",
"NV4044111862420110913",
"NV4047011630920110715",
"NV4051411664320110930",
"NV4061311862120110806",
"NV4064511642320110723",
"NV4078711636620110930",
"NV4082511600720110804",
"NV4094911623520110930",
"NV4104711697720110930",
"NV4109711741020110930",
"NV4113811772720110930",
"NV4115411482620110924",
"NV4117611810720110731",
"NV4121211745020110930",
"NV4129511728720111001",
"NV4149211725420110807",
"NV4152411744120110729",
"NV4160111751620110930",
"NV4169811421820111001",
"NV4170211501320110814",
"NV4182211640620110804",
"OK3415009503420110711",
"OK3425009521720110904",
"OK3434609658820110818",
"OK3436309706120110714",
"OK3439409737720110412",
"OK3450209537120110312",
"OK3452109595020110405",
"OK3454909656820110311",
"OK3460209569620110322",
"OK3462309854520110415",
"OK3462409582020110312",
"OK3465709551720110311",
"OK3466209572420110312",
"OK3467909550820110312",
"OK3468909870320110412",
"OK3469009518420110323",
"OK3469409849320110806",
"OK3470009555620110127",
"OK3470109565120110129",
"OK3470809575320110311",
"OK3471109880020110901",
"OK3472309849320110623",
"OK3473809869120110330",
"OK3479609550620110403",
"OK3480109522820110311",
"OK3482609806320110805",
"OK3492909814020110415",
"OK3498009524220110805",
"OK3501809605220110412",
"OK3503109988520110809",
"OK3504609613420110321",
"OK3519009614920110402",
"OK3526109608820110404",
"OK3527609590120110403",
"OK3528409607820110311",
"OK3533409868020110806",
"OK3544309587020110413",
"OK3553609741520110830",
"OK3563109630220110406",
"OK3566109452520110323",
"OK3567109627820110305",
"OK3569709516920110312",
"OK3569909483420110312",
"OK3570509519920110912",
"OK3572809592220110506",
"OK3573509638820110311",
"OK3573809509220110130",
"OK3578809623420110323",
"OK3578909620620110311",
"OK3588209631420110311",
"OK3588509721020110310",
"OK3597209656420110829",
"OK3602509626520110306",
"OK3602909467820110312",
"OK3604609633820110412",
"OK3609109621520110402",
"OK3624809631420110402",
"OK3632309617620110412",
"OK3632609622320110805",
"OK3633509654820111231",
"OK3635409630220110506",
"OK3645709664920110412",
"OK3646309668420110403",
"OK3646809594720110412",
"OK3647409598720110412",
"OK3647709663720110804",
"OK3648809663520110506",
"OK3650009566920110413",
"OK3650109596020110506",
"OK3650209617420110412",
"OK3650909610120110401",
"OK3651309605520110412",
"OK3652109690520110310",
"OK3652309664120110323",
"OK3654909629220110323",
"OK3655209647520110412",
"OK3655309602720110506",
"OK3656109861120110411",
"OK3656209625520110506",
"OK3656809638120110412",
"OK3657609579620110506",
"OK3657909606820110311",
"OK3659109561620110413",
"OK3659409684020110411",
"OK3660709571720110506",
"OK3662309663520110506",
"OK3663709626720110301",
"OK3664009648920110506",
"OK3665009615220110412",
"OK3665709618020110506",
"OK3665809605820110506",
"OK3666709676920110411",
"OK3667009668220110506",
"OK3667309645120110412",
"OK3669009603920110412",
"OK3669009610720110506",
"OK3670109661320110411",
"OK3670609529420110413",
"OK3670609624120110506",
"OK3670909611020110412",
"OK3671509664720110411",
"OK3671609629520110506",
"OK3672909655120110411",
"OK3673009636520110506",
"OK3673709664620110506",
"OK3673809642120110506",
"OK3675309612920110506",
"OK3676709635020110506",
"OK3677809663120110807",
"OK3678509535420110413",
"OK3679909822220110310",
"OK3680509651920110506",
"OK3680609677620110506",
"OK3681309642220110506",
"OK3681409579620110412",
"OK3683309896720110603",
"OK3683909547020110413",
"OK3684009666020110411",
"OK3684209605620110506",
"OK3684809631020110506",
"OK3685609619120110506",
"OK3685609657520110506",
"OK3687309625920110412",
"OK3688109608120110412",
"OK3688309677720110411",
"OK3689509670220110411",
"OK3689809599820110412",
"OK3690609692120110411",
"OK3690709654220110506",
"OK3691609552420110413",
"OK3692709599520110506",
"OK3693209662920110506",
"OK3693709646520110411",
"OK3694909605820110506",
"OK3695809674620110411",
"OK3696809672920110506",
"OK3697109613320110412",
"OK3697209675920110506",
"OK3698209607320110412",
"OK3698809667920110411",
"OK3699909657820110310",
"OK3700409661720110411",
"OK3701909608920110412",
"OR4224511849220110915",
"OR4235811722120110824",
"OR4255711905020111001",
"OR4264611760220110915",
"OR4268311872620110825",
"OR4289811760220110806",
"OR4293611856020111001",
"OR4296711776020110731",
"OR4298311853820110825",
"OR4300312219820110820",
"OR4306511751920110806",
"OR4309711823520110724",
"OR4330012051720110908",
"OR4347112095920110908",
"OR4391611746120110825",
"OR4431411944320111001",
"OR4435212182320110828",
"OR4444312138020110922",
"OR4463812121020110822",
"OR4472112022920110802",
"OR4473012013820110825",
"OR4473212142520110504",
"OR4474212096020110801",
"OR4476712123320110824",
"OR4478312125820110707",
"OR4485612210620110826",
"OR4485812079620110801",
"OR4493112043020110824",
"OR4503712107920110824",
"OR4530112101720110804",
"OR4542512164220110827",
"OR4555812091720110822",
"OR4579411674120110907",
"SC3214708108420110209",
"SC3305107964020110324",
"SC3309408045620110324",
"SC3317807943320110323",
"SC3376907891720110703",
"SC3453508022120110407",
"SC3454308024520110408",
"SC3456008023020110412",
"SC3456008029820110403",
"SC3515708137620110218",
"SD4331810023020111005",
"SD4343610385020110811",
"SD4362810403320110719",
"SD4376410207220110909",
"SD4399809948620111005",
"SD4572510006820111005",
"TN3617008450920111112",
"TX2672909780020110102",
"TX2686809829320110612",
"TX2710109802320110607",
"TX2716609835320110618",
"TX2732809807020110225",
"TX2734809861620110615",
"TX2764309801220110101",
"TX2808609682820110105",
"TX2821409685920110111",
"TX2822009665320110111",
"TX2923110333020110810",
"TX2945310297920110922",
"TX2972609568620110913",
"TX2974909411120111217",
"TX2978609642120110904",
"TX2982309739320110904",
"TX3000209683620110904",
"TX3001509956620110310",
"TX3003310418920110819",
"TX3003910417220110426",
"TX3005610426920110323",
"TX3014210426520110807",
"TX3015109722520110904",
"TX3015310450720110704",
"TX3016310124720110425",
"TX3022610377920110301",
"TX3023910292920110507",
"TX3027009581820110905",
"TX3028810412620110721",
"TX3029410244520110725",
"TX3030509591620110619",
"TX3030510133420110301",
"TX3030610156820110620",
"TX3031110088720110413",
"TX3031210406220110409",
"TX3032510377120110508",
"TX3032709917520110212",
"TX3033610021020110326",
"TX3034810001420110213",
"TX3035609439420110608",
"TX3036010327120110509",
"TX3037410253620110619",
"TX3038109995520110426",
"TX3038309808520110904",
"TX3038910358620110411",
"TX3039410392420110806",
"TX3042610382020110730",
"TX3043310016120110830",
"TX3043410136320110411",
"TX3049210278920110307",
"TX3051210212320110407",
"TX3053709429520110416",
"TX3063310409320110602",
"TX3065909926520110224",
"TX3067110210520110411",
"TX3072910200020110411",
"TX3073010232520110618",
"TX3073809581820110831",
"TX3077109572420110619",
"TX3078410419920110601",
"TX3078610202920110411",
"TX3082410410820110601",
"TX3082810132220110129",
"TX3084110088920110317",
"TX3093410088820110301",
"TX3094010424220110713",
"TX3098709420120110817",
"TX3099509411720110618",
"TX3101309494320110617",
"TX3102809508720110416",
"TX3104410035320110401",
"TX3105410125020110227",
"TX3110410308820110211",
"TX3111510127920110301",
"TX3117910439120110807",
"TX3119609768720111013",
"TX3120009777320110826",
"TX3123409768020110810",
"TX3125609613020110904",
"TX3127009776020110820",
"TX3131010099820110426",
"TX3132409534520110904",
"TX3142009810920110828",
"TX3142410252920110426",
"TX3143710130220110528",
"TX3146909831620110805",
"TX3154610065920110407",
"TX3156209795120110914",
"TX3157610091820110408",
"TX3158010100120110618",
"TX3161209566220110905",
"TX3162209895720110403",
"TX3163209894820110310",
"TX3164510067020110217",
"TX3165109516420110911",
"TX3168409676120110904",
"TX3170610062820110620",
"TX3175209496120110904",
"TX3178810230220110403",
"TX3179610058220110411",
"TX3181510123720110517",
"TX3182709733920110903",
"TX3186910218420110409",
"TX3187009562420110904",
"TX3188610372020110518",
"TX3188910171020110406",
"TX3189110073520110608",
"TX3194110185320110407",
"TX3194210124620110719",
"TX3195910223720110524",
"TX3197310148420110603",
"TX3198410370220110502",
"TX3205010237020110524",
"TX3205610062720110706",
"TX3207810046020110620",
"TX3209110025620110224",
"TX3209209772120110311",
"TX3209710116720110227",
"TX3212310256320110524",
"TX3213810016420110227",
"TX3214910122820110830",
"TX3216510143520110509",
"TX3218510275020110406",
"TX3218910070620110811",
"TX3220810145420110620",
"TX3231909882620110415",
"TX3232210090820110426",
"TX3237910045820110610",
"TX3238310102720110414",
"TX3238510242020110227",
"TX3242110032020110711",
"TX3242309896820110416",
"TX3248409418820110911",
"TX3249409854420110812",
"TX3250909488420110904",
"TX3253809889920110726",
"TX3259510061420110508",
"TX3259909869220110416",
"TX3265409930320110603",
"TX3269809481620110904",
"TX3271009425420110905",
"TX3271509932520110715",
"TX3272809946720110301",
"TX3278109843820110830",
"TX3279409825320110613",
"TX3282709409820110913",
"TX3284309818520110704",
"TX3289209866620110413",
"TX3290510106320110425",
"TX3291609954320110317",
"TX3295210110120110709",
"TX3296209991720110301",
"TX3297309443120110904",
"TX3297810081920110929",
"TX3298710081820110411",
"TX3299209949220110317",
"TX3300809967520110317",
"TX3301409940520110625",
"TX3301609909920110619",
"TX3304910124120110403",
"TX3310009824220110311",
"TX3316309838020110416",
"TX3317609955320110620",
"TX3319010126820110228",
"TX3321609834620110712",
"TX3321810014620110619",
"TX3322510197720110425",
"TX3325210146620110624",
"TX3325710242620110425",
"TX3328510032520110406",
"TX3328610139320110409",
"TX3328610144620110419",
"TX3330410126920110524",
"TX3335510043620110828",
"TX3339109814820110823",
"TX3341909935720110429",
"TX3347509801620110807",
"TX3349809810120110914",
"TX3354510075720110507",
"TX3358410038420110215",
"TX3358510237420110227",
"TX3360010261420110618",
"TX3361209797020110913",
"TX3361709806820110619",
"TX3362210277220110217",
"TX3371409862220110416",
"TX3376010256020110429",
"TX3392609869820110415",
"TX3398209921920110711",
"TX3400510082720110227",
"TX3408709908920110429",
"TX3408909874920110518",
"TX3409910050020110611",
"TX3417609996420110921",
"TX3418910021220110608",
"TX3419909991520110921",
"TX3428810020820110402",
"TX3443510005220110709",
"TX3449810079420110810",
"TX3455410094920110831",
"TX3455910178620110524",
"TX3457110062020110830",
"TX3459410106920110819",
"TX3462210140120110227",
"TX3472710205220110426",
"TX3476010237020110524",
"TX3485810117020110228",
"TX3485810125120110825",
"TX3486810143220110228",
"TX3495110185320110524",
"TX3509110181320110227",
"TX3512710125220110824",
"TX3523410192220110529",
"TX3538310160620110227",
"TX3549710157120110304",
"TX3555810141820110227",
"TX3556910184520110530",
"TX3559310189120110619",
"TX3563810192620110409",
"TX3567810118620110802",
"TX3575010240220110224",
"TX3575310196320110217",
"TX3582410133620110801",
"TX3629310257020110419",
"TX3632710027520110217",
"UT3707811375020110616",
"UT3718111375620110610",
"UT3811111315820110805",
"UT3965711220620110901",
"UT3971911241920110815",
"UT3985611196320110718",
"UT4021411190120110806",
"UT4083411277420110716",
"UT4149411255520110831",
"UT4182911286620110820",
"UT4194611259120110820",
"VA3657807650120110804",
"VA3738208020020110219",
"VA3753208010820110214",
"VA3775407675820110219",
"VA3798307892020111113",
"VA3800807784220110219",
"VA3804207858320110219",
"VA3852107903820110219",
"VA3852107903820110222",
"VA3880807819420110219",
"WA4566512100820110829",
"WA4594612067220110907",
"WA4603011885720110807",
"WA4749511901720110725",
"WA4769312310920110831",
"WA4793411815920110411",
"WA4799211896720110821",
"WA4825011939020110829",
"WY4182510535820110830",
"WY4195210526420110821",
"WY4214910691220110502",
"WY4225910726320110921",
"WY4294910640920110825",
"WY4302610490720110825",
"WY4322410487820110825",
"WY4333510557820110924",
"WY4338310434020110825",
"WY4340410426920110831",
"WY4356311039520110820",
"WY4360211036420110912",
"WY4370110410520110718",
"WY4381510955820110722",
"WY4388511010720110826",
"WY4413310626920111002",
"WY4445711028320110825",
"WY4449810543920110822",
"WY4452110742120110828",
"WY4469810555220110827",
"WY4495310930920110821")
